SURVEY|#BatchNo|BATCHCODE|FID|DATETIME|F010002|F010040|F010003|F010004|F010005|F010006|F010007|F010008|F010009|F010010|F010011|F010012|F010013|F010014|F010015|F010016|F010017|F010018|F010019|F010020|F010021|F010022|F010023|F010024|F010025|F010026|F010028|F010029|F010030|F010035|F010036|F010037|F010038|F010039|F020001|F020002|F030001|F030002|F030003|F030004|F030005|F030006|F030007|F030008|F030009|F030010|F030011|F030012|F030013|F040101|F040102|F040103|F040104|F040105|F040106|F040107|F040108|F040109|F040110|F040111|F040112|F040113|F040114|F040199|F040202|F040203|F040205|F040206|F040208|F040209|F040210|F040214|F040299|F040301|F040302|F040303|F040304|F040305|F040306|F040307|F040308|F040309|F040310|F040311|F040312|F040313|F040314|F040399|F040401|F040402|F040403|F040404|F040405|F040501|F050101|F050102|F050103|F050104|F050105|F050106|F050107|F050108|F050109|F050116|F050112|F050189|F050113|F050199|F050201|F050202|F050203|F050204|F050205|F050206|F050207|F050208|F050209|F050216|F050212|F050289|F050213|F050299|F050301|F050302|F050303|F050304|F050305|F050306|F050307|F050308|F050309|F050316|F050312|F050389|F050313|
F050399|F050401|F050402|F050403|F050404|F050405|F050406|F050407|F050408|F050409|F050416|F050412|F050489|F050413|F050499|F330048|F330049|F330050|F330051|F330052|F330053|F330054|F330055|F330056|F340001|F340002|F340003|F330032|F330033|F330034|F330035|F330036|F330037|F330038|F330039|F330040|F330041|F330042|F330043|F330044|F330045|F330046|F330047|F050501|F050502|F050503|F050504|F050505|F050506|F050507|F050508|F050509|F050516|F050512|F050589|F050513|F050599|F050601|F050602|F050603|F050604|F050605|F050606|F050607|F050608|F050609|F050616|F050612|F050689|F050613|F050699|F050701|F050702|F050703|F050704|F050705|F050706|F050707|F050708|F050709|F050716|F050712|F050789|F050713|F050799|F050803|F050804|F050805|F050806|F050807|F050808|F050809|F050816|F050812|F050889|F050813|F050899|F050903|F050904|F050905|F050906|F050907|F050908|F050909|F050916|F050912|F050989|F050999|F051001|F051002|F051003|F051004|F051005|F051006|F051007|F051008|F051009|F051016|F051012|F051089|F051013|F051099|F051101|F051102|F051103|F051104|F051105|F051106|F051107|F051108|F051109|F051116|F051112|F051189|F051113|F051199|F051201|F051202|F051203|F051204|F051205|F051206|F051207|F051208|F051209|F051216|F051212|F051289|F051213|F051299|F051301|F051302|F051303|F051304|F051305|F051306|F051307|F051308|F051309|F051316|
F051312|F051389|F051313|F051399|F330001|F330002|F330003|F330004|F330005|F330006|F330007|F330008|F330009|F330010|F330011|F330012|F330013|F330014|F330015|F330016|F330017|F330018|F330019|F330020|F330021|F330022|F330023|F330024|F330025|F330026|F330027|F330028|F330029|F330030|F330031|F310068|F310069|F310070|F310071|F310072|F310073|F310074|F310075|F310076|F310077|F310078|F310079|F310080|F320101|F320102|F320201|F320202|F051401|F051402|F051403|F051404|F051405|F051406|F051407|F051408|F051409|F051416|F051412|F051489|F051413|F051499|F051501|F051502|F051503|F051504|F051505|F051506|F051507|F051508|F051509|F051516|F051512|F051589|F051513|F051599|
F051601|F051602|F051603|F051604|F051605|F051606|F051607|F051608|F051609|F051616|F051612|F051689|F051613|F051699|F051703|F051704|F051705|F051706|F051707|F051708|F051709|F051716|F051712|F051789|F051713|F051799|F051803|F051804|F051805|F051806|F051807|F051808|F051809|F051816|F051812|F051889|F051899|F060101|F060102|F060103|
F060104|F060105|F060106|F060107|F060108|F060109|F060116|F060112|F060189|F060113|F060122|F060123|F060199|F060201|F060202|F060203|F060204|F060205|F060206|F060207|
F060208|F060209|F060216|F060212|F060289|F060213|F060222|F060223|F060299|F060301|F060302|F060303|F060304|F060305|F060306|F060307|F060308|F060309|F060316|F060312|F060389|F060313|F060322|F060323|F060399|F060401|F060402|F060403|F060404|F060405|F060406|F060407|F060408|F060409|F060416|F060412|F060489|F060413|F060422|F060423|
F060499|F060501|F060502|F060503|F060504|F060505|F060506|F060507|F060508|F060509|F060516|F060512|F060589|F060513|F060522|F060523|F060599|F310051|F310052|F310053|F310054|F310055|F310056|F310057|F310058|F310059|F310060|F310061|F310062|F310063|F310064|F310065|F310066|F310067|F310036|F310037|F310038|F310039|F310040|F310041|F310042|F310043|F310044|F310045|F310046|F310047|F310048|F310049|F310050|F060601|F060602|F060603|F060604|F060605|F060606|F060607|F060608|F060609|F060616|F060612|F060689|F060613|F060622|F060623|F060699|F060701|F060702|F060703|F060704|F060705|F060706|F060707|F060708|F060709|F060716|F060712|F060789|F060713|F060722|F060723|
F060799|F060801|F060802|F060803|F060804|F060805|F060806|F060807|F060808|F060809|F060816|F060812|F060889|F060813|F060822|F060823|F060899|F060901|F060902|F060903|
F060904|F060905|F060906|F060907|F060908|F060909|F060916|F060912|F060989|F060913|F060922|F060923|F060999|F061001|F061002|F061003|F061004|F061005|F061006|F061007|
F061008|F061009|F061016|F061012|F061089|F061013|F061022|F061023|F061099|F061101|F061102|F061103|F061104|F061105|F061106|F061107|F061108|F061109|F061116|F061112|
F061189|F061113|F061122|F061123|F061199|F061201|F061202|F061203|F061204|F061205|F061206|F061207|F061208|F061209|F061216|F061212|F061289|F061213|F061222|F061223|F061299|F061301|F061302|F061303|F061304|F061305|F061306|F061307|F061308|F061309|F061316|F061312|F061389|F061313|F061322|F061323|F061399|F061401|F061402|F061403|
F061404|F061405|F061406|F061407|F061408|F061409|F061416|F061412|F061489|F061413|F061422|F061423|F061499|F061501|F061502|F061503|F061504|F061505|F061506|F061507|
F061508|F061509|F061516|F061512|F061589|F061513|F061522|F061523|F061599|F061601|F061602|F061603|F061604|F061605|F061606|F061607|F061608|F061609|F061616|F061612|
F061689|F061613|F061622|F061623|F061699|F061701|F061702|F061703|F061704|F061705|F061706|F061707|F061708|F061709|F061716|F061712|F061789|F061713|F061722|F061723|
F061799|F061801|F061802|F061803|F061804|F061805|F061806|F061807|F061808|F061809|F061816|F061812|F061889|F061813|F061822|F061823|F061899|F310017|F310018|F310019|
F310020|F310021|F310022|F310023|F310024|F310025|F310026|F310027|F310028|F310029|F310030|F310031|F310032|F310033|F310034|F310035|F310001|F310002|F310003|F310004|
F310005|F310006|F310007|F310008|F310009|F310010|F310011|F310012|F310013|F310014|F310015|F310016|F061901|F061902|F061903|F061904|F061905|F061906|F061907|F061908|
F061909|F061916|F061912|F061989|F061913|F061922|F061923|F061999|F062001|F062002|F062003|F062004|F062005|F062006|F062007|F062008|F062009|F062016|F062012|F062089|
F062013|F062022|F062023|F062099|F062101|F062102|F062103|F062104|F062105|F062106|F062107|F062108|F062109|F062116|F062112|F062189|F062113|F062122|F062123|F062199|F062201|F062202|F062203|F062204|F062205|F062206|F062207|F062208|F062209|F062216|F062212|F062289|F062213|F062222|F062223|F062299|F062301|F062302|F062303|F062304|
F062305|F062306|F062307|F062308|F062309|F062316|F062312|F062389|F062313|F062322|F062323|F062399|F062401|F062402|F062403|F062404|F062405|F062406|F062407|F062408|
F062409|F062416|F062412|F062489|F062413|F062422|F062423|F062499|F062501|F062502|F062503|F062504|F062505|F062506|F062507|F062508|F062509|F062516|F062512|F062589|
F062513|F062522|F062523|F062599|F062601|F062602|F062603|F062604|F062605|F062606|F062607|F062608|F062609|F062616|F062612|F062689|F062613|F062622|F062623|F062699|
F070101|F070102|F070103|F070104|F070201|F070202|F070203|F070204|F070301|F070302|F070303|F070304|F070404|F070405|F070499|F070507|F127020|F120701|F120702|F120703|
F120704|F120705|F120706|F120707|F120708|F120709|F120710|F120711|F120712|F120713|F120714|F120715|F120716|F120717|F127120|F127101|F127102|F127103|F127104|F127105|
F127106|F127107|F127108|F127109|F127110|F127111|F127112|F127113|F127114|F127115|F127116|F127117|F087601|F087602|F087603|F087604|F087605|F087606|F087607|F087608|
F087609|F087610|F087611|F087612|F087613|F087614|F100101|F100110|F100104|F100199|F100201|F100212|F100204|F100299|F110001|F110002|F110003|F110004|F110005|F110006|
F110007|F110008|F110009|F110010|F110011|F110012|F110013|F110014|F110015|F110016|F110017|F110018|F110019|F090037|F090038|F090039|F090040|F090041|F090042|F090043|
F090044|F090045|F090046|F090047|F090048|F090049|F090050|F090051|F090052|F090089|F090053|F090054|F090055|F090056|F090099|F087615|F087616|F087617|F087618|F087619|
F087620|F087621|F087622|F087623|F087624|F087625|F087626|F087627|F087628|F087629|F087630|F087631|F087632|F090019|F090020|F090021|F090022|F090023|F090024|F090030|
F090062|F090031|F090032|F090033|F090035|F090034|F090079|F090036|F090058|F090006|F090007|F090008|F090071|F090072|F090073|F090074|F090075|F090076|F090015|F090025|
F090067|F090065|F080023|F080024|F080025|F080026|F080027|F080028|F080029|F080014|F080011|F080012|F080031|F080032|F080013|F080033|F080010|F080007|F080009|F080015|
F080018|F080089|F080017|F080099|F087633|F087634|F087635|F087636|F090016|F090011|F090066|F090063|F090001|F090009|F090082|F090064|F090059|F090083|F090088|F090012|
F090013|F090014|F090017|F090026|F090060|F090061|F090003|F090005|F090057|IMG1|IMG2|IMG3|IMG4|IMG5|IMG6|IMG7|IMG8|IMG9|IMG10|IMG11|IMG12|IMG13|IMG14|IMG15|IMG16|IMG17|IMG18|IMG19|IMG20	

SURVEY320|1|180726W0005|000000000320|00000:00000|010002|3|2013|04042016|05052017|1|1|0|1|0|1|0|ABCDEFGHIJK LMN0PQRSTU 123|ABC DEF GHI JKL MNO 1 23|25143|1|01|18|019|02002A|1|02||024|02525B|2|ABCDEF GHIJKL MNOPQR 123|10029|10030|1|2|1|1|1|2|0|30001|-30002|03|04|05|06|07|08|09|10|11|12|ABC 30013|40101|40102|40103|40104|40105|40106|40107|40108|40109|40110|40111|40112|40113|40114|40199|40202|40203|40205|40206|40208|40209|40210|40214|40299|40301|40302|40303|40304|40305|40306|40307|40308|40309|40310|40311|40312|40313|40314|40399|40401|40402|40403|40404|40405|40501|50101|50102|50103|50104|50105|50106|50107|50108|50109|50116|50112|50189|50113|50199|50201|50202|50203|50204|50205|50206|50207|50208|50209|50216|50212|50289|50213|50299|50301|50302|50303|50304|50305|50306|50307|50308|50309|50316|50312|50389|50313|50399|50401|50402|50403|50404|50405|50406|50407|50408|50409|50416|50412|50489|50413|50499|48|49|50|3351|3352|3353|330054|330055|330056|1|340002|1|330032|330033|330034|1|330036|330037|330038|330039|330040|330041|330042|330043|330044|330045|330046|330047|50501|50502|50503|50504|50505|50506|50507|50508|50509|50516|50512|50589|50513|50599|50601|50602|50603|30604|50605|50606|50607|50608|50609|50616|50612|50689|50613|50699|50701|50702|50703|50704|50705|50706|50707|50708|50709|50716|50712|50789|50713|50799|50803|50804|50805|50806|50807|50808|50809|50816|50812|50889|50813|50899|50903|50904|50905|50906|50907|50908|50909|50916|50913|50989|50999|05101|51002|51003|51004|51005|51006|51007|51008|51009|51016|51012|51099|51013|51099|51101|51102|51103|51104|51105|51106|51107|51108|51009|51016|51012|51089|51013|51099|51201|51202|51203|51204|51205|51206|51207|51208|51209|31216|51212|31289|51213|51299|51301|51302|51303|51304|51305|51306|51307|51308|51309|51316|51312|51389|51313|51399|1|0|1|0|1|1|1|1|1|1|0|0|1|1|0|1|0|1|1|1|1|1|1|1|1|330026|330027|330028|330029|330030|330031|68|69|ABC 310070|DEF 31 0071|GH1 310072|73|74|75|1|310077|78|310079|80|320101|320102|320201|320202|01401|51402|51403|51404|51405|51406|51407|51408|51409|51416|51412|51489|51413|51499|51501|51502|51503|51504|51505|51506|51507|51508|51509|51516|51512|51589|51513|51599|51601|51602|51603|51604|51605|51606|51607|51608|51609|51616|51612|51689|51613|51699|51703|51704|51705|51706|51707|51708|51709|51716|51712|51789|51713|51799|5183|51804|51805|51806|51807|51808|31809|51816|51812|51889|51899|6001|6002|6003|6004|6005|6006|6007|6008|6009|6016|6012|6089|6013|6022|6023|6099|6201|6202|6203|6204|6205|6206|6207|6208|6209|6216|6212|6289|6213|6222|6223|6299|6301|6302|6303|6304|6305|6306|6307|6308|6309|6316|6312|6389|6313|6322|6323|6399|6401|6402|6403|6404|6405|6406|6407|6408|6409|6416|6412|6489|6413|6422|3423|6499|6501|6502|6503|6504|6505|6506|6507|6508|6509|6516|6512|6589|6513|6522|6523|6599|51|52|53|54|55|ABC 310056|DEF 310057|GH1 310058|59|60|61|1|310063|64|65|66|67|1|0|1|0|1|0|1|2|310044|45|46|47|48|49|ABC DEF 310050|6600|6602|6603|6604|6605|6606|6607|6608|6609|6616|6612|6689|6613|6622|6623|6699|6701|6702|6703|6704|6705|6706|6707|6708|6709|6716|6712|6789|6713|6722|6723|6799|6801|6802|6803|6804|6805|6806|6807|6808|6809|6816|6812|6889|6813|6822|6823|6899|6901|6902|6903|6904|6905|6906|6907|6908|6909|6916|6912|6989|6913|6922|6923|6999|6161|6102|6103|6104|6105|6106|6107|6108|6109|6116|6112|6189|6113|6122|6123|6199|6101|6102|6103|6104|6105|6106|6107|6108|6109|6116|6112|6189|6113|6122|6123|6199|6201|6203|6204|6204|6205|6206|6207|6208|6209|6216|6212|6289|6213|6222|6223|6299|6301|61302|61304|61304|61305|61306|61307|61308|61309|61316|61312|61389|61313|61322|61323|61399|6141|6142|6143|6144|6145|6146|6147|6148|6149|6116|6112|6189|6113|6122|6123|6199|6151|6152|6153|6154|6155|6156|6157|6158|6159|6156|6152|6159|6153|6152|6153|6199|6161|6162|6163|6164|6165|6166|6167|6168|6169|6166|6162|6169|6163|6162|6163|6169|6171|6172|6173|6174|6175|6176|6177|6168|6179|6176|6172|6179|6173|6172|6173|6179|6181|6182|6183|6184|6185|6186|6187|6188|6189|6186|6182|6189|6183|6182|6183|6189|1|1|0|1|1|0|1|0|1|0|1|0|1|0|1|0|1|1|2|1|2|2|4|1|0|1|1|1|1|1|1|1|1|1|1|6191|6192|6193|6194|6195|6196|6197|6198|6199|6196|6192|6199|6193|6192|6193|6199|6201|6202|6203|6204|6205|6206|6207|6208|6209|6206|6212|6289|6213|6222|6223|6299|6211|6212|6213|6214|6215|6216|6217|6218|6219|6216|6212|6289|6213|6222|6223|6299|6221|6222|6223|6224|6225|6226|6227|6238|6229|6226|6222|6229|6223|6222|6223|6229|6231|6232|6233|6234|6235|6236|6237|6238|6339|6239|6232|6239|6233|6232|6233|6239|6241|6242|6243|6244|6245|6246|6247|6248|6249|6246|6242|6249|6243|6242|6243|6249|6251|6252|6253|6254|6255|6256|6257|6258|6259|6256|6252|6259|6253|6252|6253|6259|62601|62602|62603|62604|62605|62606|63507|62508|62509|62516|62512|62589|62513|62522|62523|62599|7011|702|73|70104|7021|702|72|70204|7031|732|73|70304|70404|70405|70499|70507|02|701|702|703|704|705|706|707|708|709|710|711|712|713|714|715|716|717|127120|127100|127102|127103|127104|127105|127106|127107|127108|127109|127110|127111|127112|127213|127214|127215|127216|127217|87601|87602|87603|87604|87605|87606|87607|87608|87609|87610|87611|87612|87613|87614|100101|100112|100104|100199|100201|100212|100204|100299|110001|-110002|1|0|1|0|1|0|1|1|1|1|1|0|1|1|0|1|AB CDEF 110019|90037|90038|90039|90040|90041|90042|90043|90044|90045|90046|90047|90048|90049|90050|90051|90052|90089|90053|90054|90055|90054|90099|87615|87616|87617|87618|87619|87620|87621|87622|87623|87624|87625|87626|87627|87628|87629|87630|87631|87632|90019|90020|90021|90022|90033|90024|90030|90062|90031|90032|90033|90035|90034|90079|90036|90058|90006|90007|90008|71|72|73|74|75|76|90015|90025|90067|90065|80023|80024|80025|80026|80027|80028|80029|80014|80011|80012|80031|80032|80013|80033|80010|80007|80009|80015|80018|80089|80017|80099|33|34|35|36|90016|90011|90066|90063|90001|90009|90082|90064|90059|90083|90088|90012|13|14|90017|90026|90060|90061|90003|90005|90057|\\icr.stats.gov.my\ehfglobal\img\aes18\survey310\7QG13000\7QG13002.TIF|\\icr.stats.gov.my\ehfglobal\img\aes18\survey310\7QG13000\7QG13003.TIF|\\icr.stats.gov.my\ehfglobal\img\aes18\survey310\7QG13000\7QG13006.TIF|\\icr.stats.gov.my\ehfglobal\img\aes18\survey310\7QG13000\7QG13007.TIF|\\icr.stats.gov.my\ehfglobal\img\aes18\survey310\7QG13000\7QG13010.TIF|\\icr.stats.gov.my\ehfglobal\img\aes18\survey310\7QG13000\7QG13011.TIF|\\icr.stats.gov.my\ehfglobal\img\aes18\survey310\7QG13000\7QG13014.TIF|\\icr.stats.gov.my\ehfglobal\img\aes18\survey310\7QG13000\7QG13015.TIF|\\icr.stats.gov.my\ehfglobal\img\aes18\survey310\7QG13000\7QG13018.TIF|\\icr.stats.gov.my\ehfglobal\img\aes18\survey310\7QG13000\7QG13019.TIF|\\icr.stats.gov.my\ehfglobal\img\aes18\survey310\7QG13000\7QG13022.TIF|\\icr.stats.gov.my\ehfglobal\img\aes18\survey310\7QG13000\7QG13023.TIF|\\icr.stats.gov.my\ehfglobal\img\aes18\survey310\7QG13000\7QG13026.TIF|\\icr.stats.gov.my\ehfglobal\img\aes18\survey310\7QG13000\7QG13027.TIF|\\icr.stats.gov.my\ehfglobal\img\aes18\survey310\7QG13000\7QG13030.TIF|\\icr.stats.gov.my\ehfglobal\img\aes18\survey310\7QG13000\7QG13031.TIF|\\icr.stats.gov.my\ehfglobal\img\aes18\survey310\7QG13000\7QG13034.TIF|\\icr.stats.gov.my\ehfglobal\img\aes18\survey310\7QG13000\7QG13035.TIF|\\icr.stats.gov.my\ehfglobal\img\aes18\survey310\7QG13000\7QG13038.TIF|\\icr.stats.gov.my\ehfglobal\img\aes18\survey310\7QG13000\7QG13039.TIF

